<svg width="80" height="80" viewBox="0 0 80 80" fill="none" xmlns="http://www.w3.org/2000/svg">
<path fill-rule="evenodd" clip-rule="evenodd" d="M13.125 8.125C10.3636 8.125 8.125 10.3636 8.125 13.125V66.875C8.125 69.6364 10.3636 71.875 13.125 71.875H66.875C69.6364 71.875 71.875 69.6364 71.875 66.875V13.125C71.875 10.3636 69.6364 8.125 66.875 8.125H13.125ZM17.5 16.875H27L40 41.5L53 16.875H62.5V63.75H53V39.25L46.5 51.625H33.5L27 39.25V63.75H17.5V16.875Z" fill="context-fill"/>
</svg>
